Código Tesis
…
## 
## Attaching package: 'imputeTS'

## The following object is masked from 'package:zoo':
## 
##     na.locf

library(forecast)
serie_edu_unfill <- read_excel("Datos/Series Tesis Recolección.xlsx",sheet ="Gasto en Educación", na = "NA")

serie_edu_unfill <- serie_edu_unfill[1:26,]
serie_edu_unfill

## # A tibble: 26 x 2
##    Fecha Gasto_Educacion_PorcGDP
##    <dbl>                   <dbl>
##  1  1989                    2.27
##  2  1990                    2.31
##  3  1991                    2.54
##  4  1992                    3   
##  5  1993                   NA   
##  6  1994                    3.65
##  7  1995                    3.87
##  8  1996                   NA   
##  9  1997                   NA   
## 10  1998                    3.53
## # ... with 16 more rows
…
